Seruat
…
        p_val avg_log2FC pct.1 pct.2 p_val_adj
PGD         0   1.307898 0.754 0.353         0
CSF3R       0   1.307985 0.708 0.256         0
S100A11     0   1.081487 0.976 0.686         0
S100A9      0   2.655140 0.990 0.499         0
S100A12     0   2.547759 0.945 0.292         0

csv

> write.csv(cluster1.markers,file = "result/normal/cluster1.markers.csv")

> pbmc.markers <- FindAllMarkers(pbmc_PCA, only.pos = TRUE, min.pct = 0.25, logfc.threshold = 0.25)
> pbmc.markers %>% group_by(cluster) %>% top_n(n = 2, wt = avg_log2FC)

# A tibble: 40 x 7
# Groups:   cluster [20]
   p_val avg_log2FC pct.1 pct.2 p_val_adj cluster gene  
   <dbl>      <dbl> <dbl> <dbl>     <dbl> <fct>   <chr> 
 1     0       1.97 0.845 0.143         0 0       LGALS2
 2     0       1.85 0.997 0.37          0 0       LYZ   
 3     0       2.66 0.99  0.499         0 1       S100A9
 4     0       2.65 0.994 0.453         0 1       S100A8
 5     0       2.30 0.979 0.334         0 2       LTB   
 6     0       2.15 0.891 0.165         0 2       IL7R  
 7     0       4.23 0.985 0.023         0 3       CD79A 
 8     0       3.85 0.982 0.015         0 3       MS4A1 
 9     0       2.84 0.58  0.051         0 4       GZMK  
10     0       2.55 0.745 0.064         0 4       CD8A  
# ... with 30 more rows
…
